L14 - Linear Regression
…
tidy() for parameters values

glance() for model statistics

augment() for fitted/residual values to original data

library(broom)
tidy(lm_out)
## # A tibble: 2 x 5
##   term         estimate std.error statistic  p.value
##   <chr>           <dbl>     <dbl>     <dbl>    <dbl>
## 1 (Intercept) 72.3      0.694        104.   8.50e-38
## 2 gdpPercap    0.000215 0.0000251      8.54 2.80e- 9
augment(lm_out)
## # A tibble: 30 x 9
##    lifeExp gdpPercap .fitted .se.fit  .resid   .hat .sigma .cooksd
##      <dbl>     <dbl>   <dbl>   <dbl>   <dbl>  <dbl>  <dbl>   <dbl>
##  1    76.4     5937.    73.5   0.562  2.88   0.124    1.52 2.62e-1
##  2    79.8    36126.    80.0   0.403 -0.196  0.0637   1.63 5.47e-4
##  3    79.4    33693.    79.5   0.364 -0.0616 0.0518   1.63 4.29e-5
##  4    74.9     7446.    73.9   0.530  0.983  0.110    1.61 2.63e-2
##  5    73.0    10681.    74.6   0.464 -1.56   0.0845   1.60 4.80e-2
##  6    75.7    14619.    75.4   0.392  0.339  0.0603   1.63 1.54e-3
##  7    76.5    22833.    77.2   0.297 -0.686  0.0346   1.62 3.42e-3
##  8    78.3    35278.    79.8   0.389 -1.51   0.0592   1.60 2.99e-2
##  9    79.3    33207.    79.4   0.357 -0.0854 0.0498   1.63 7.88e-5
## 10    80.7    30470.    78.8   0.322  1.85   0.0406   1.59 2.94e-2
## # ... with 20 more rows, and 1 more variable: .std.resid <dbl>
…
