L4 - Data Transformation & Summarization
…
my_df %>% group_by(V2) %>% ungroup() %>% slice(1)
## # A tibble: 1 x 3
##      V1 V2    V3   
##   <int> <chr> <lgl>
## 1     1 a     FALSE

Example

Number of inspections by establishment type

dinesafe %>% 
  group_by(ESTABLISHMENTTYPE) %>% 
  summarise( n_distinct(ESTABLISHMENT_ID) )
## # A tibble: 55 x 2
##    ESTABLISHMENTTYPE                 `n_distinct(ESTABLISHMENT_ID)`
##    <chr>                                                      <int>
##  1 Bake Shop                                                     46
##  2 Bakery                                                       381
##  3 Banquet Facility                                             151
##  4 Bed & Breakfast                                                1
##  5 Boarding / Lodging Home - Kitchen                             67
##  6 Bottling Plant                                                 5
##  7 Brew Your Own Beer / Wine                                      5
##  8 Butcher Shop                                                 157
##  9 Cafeteria                                                    186
## 10 Cafeteria - Public Access                                    107
## # ... with 45 more rows
…
